[M::mm_idx_gen::0.013*0.20] collected minimizers
[M::mm_idx_gen::0.015*0.29] sorted minimizers
[M::main::0.015*0.29] loaded/built the index for 8 target sequence(s)
[M::mm_mapopt_update::0.015*0.30] mid_occ = 2
[M::mm_idx_stat] kmer size: 15; skip: 10; is_hpc: 0; #seq: 8
[M::mm_idx_stat::0.015*0.31] distinct minimizers: 2466 (100.00% are singletons); average occurrences: 1.000; average spacing: 5.405
[M::worker_pipeline::0.079*1.93] mapped 139 sequences
[M::main] Version: 2.17-r941
[M::main] CMD: minimap2 -x map-ont -a -o //home/user/bin/jhu_genomics_workshop/test-data/output/4-reference_alignment/BC01-A-4_HA.sam --cs //home/user/bin/jhu_genomics_workshop/test-data/output/3-closest-reference/BC01-closest-reference-IAV.fasta //home/user/bin/jhu_genomics_workshop/test-data/output/2-split-level/BC01/BC01-A-4_HA.fastq
[M::main] Real time: 0.080 sec; CPU: 0.154 sec; Peak RSS: 0.007 GB
